         0  6.823480e-118
         1  3.912869e-104
         2  2.653522e-91
         3  2.146592e-79
         4  2.104861e-68
         5  2.568554e-58
         6  4.039016e-49
         7  8.432715e-41
         8  2.350023e-33
         9  8.543581e-27
        10  3.919523e-21
        11  2.213273e-16
        12  1.526744e-12
        13  1.309363e-09
        14  1.483933e-07
        15  2.543811e-06
        16  8.553543e-06
        17  1.118027e-05
        18  1.315364e-05
        19  8.394873e-06
        20  5.980026e-06
        21  6.965890e-06
        22  8.218065e-06
        23  9.402209e-06
        24  8.712928e-06
        25  6.363137e-06
        26  4.931018e-06
        27  5.603405e-06
        28  6.559363e-06
        29  6.887478e-06
        30  6.183323e-06
        31  6.277220e-06
        32  5.484447e-06
        33  4.203956e-06
        34  4.251768e-06
        35  6.092133e-06
        36  5.852424e-06
        37  3.811206e-06
        38  4.166872e-06
        39  3.086787e-06
        40  3.618678e-06
        41  4.160735e-06
        42  4.892799e-06
        43  4.728941e-06
        44  2.497719e-06
        45  8.364920e-07
        46  2.109165e-06
        47  3.255405e-06
        48  2.678154e-06
        49  1.802004e-06
        50  1.205022e-06
        51  3.091072e-07
        52  6.714699e-07
        53  1.663415e-06
        54  2.722424e-06
        55  5.290444e-06
        56  5.418820e-06
        57  4.016998e-06
        58  4.378635e-06
        59  4.438320e-06
        60  2.619195e-06
        61  1.372463e-06
        62  6.540141e-07
        63  1.657084e-07
        64  8.214716e-07
        65  1.721449e-06
        66  1.472785e-06
        67  1.259238e-06
        68  3.626439e-07
        69  6.241566e-07
        70  1.290243e-06
        71  2.026057e-06
        72  4.224954e-06
        73  5.194896e-06
        74  3.836721e-06
        75  4.733211e-06
        76  6.773528e-06
        77  5.038397e-06
        78  4.704558e-06
        79  5.211998e-06
        80  5.656457e-06
        81  6.952889e-06
        82  3.354859e-06
        83  1.613107e-06
        84  2.180823e-06
        85  2.926086e-06
        86  2.966314e-06
        87  2.049046e-06
        88  2.870555e-06
        89  4.089627e-06
        90  3.356654e-06
        91  3.477844e-06
        92  3.628792e-06
        93  1.511883e-06
        94  1.532917e-06
        95  2.277090e-06
        96  2.536879e-06
        97  2.702038e-06
        98  4.230909e-06
        99  4.257374e-06
       100  3.049142e-06
       101  1.878264e-06
       102  6.064521e-07
       103  2.507984e-07
       104  5.477697e-08
       105  6.422977e-07
       106  2.176926e-06
       107  1.344515e-06
       108  3.951272e-07
       109  3.274575e-07
       110  1.279842e-06
       111  3.179357e-06
       112  3.580445e-06
       113  3.361819e-06
       114  3.223573e-06
       115  1.928249e-06
       116  1.625281e-06
       117  2.610484e-06
       118  3.919762e-06
       119  4.988079e-06
       120  5.432415e-06
       121  6.659927e-06
       122  4.891730e-06
       123  4.358463e-06
       124  6.006340e-06
       125  3.515195e-06
       126  1.363705e-06
       127  7.921135e-07
       128  1.558118e-06
       129  1.859970e-06
       130  1.031277e-06
       131  2.997661e-06
       132  3.295518e-06
       133  2.009831e-06
       134  1.918192e-06
       135  2.938789e-06
       136  2.413968e-06
       137  1.806435e-06
       138  1.933696e-06
       139  1.332931e-06
       140  3.836902e-07
       141  5.491178e-07
       142  1.560172e-06
       143  3.555354e-06
       144  4.345897e-06
       145  2.133028e-06
       146  7.798885e-07
       147  1.408022e-06
       148  4.631122e-06
       149  4.063798e-06
       150  1.985782e-06
       151  3.507042e-06
       152  3.691610e-06
       153  4.785591e-06
       154  3.627404e-06
       155  4.286454e-06
       156  3.938241e-06
       157  2.313633e-06
       158  3.160995e-06
       159  2.063930e-06
       160  1.171577e-06
       161  2.805529e-06
       162  2.219364e-06
       163  1.028684e-06
       164  1.106914e-07
       165  1.623142e-09
       166  3.018703e-12
       167  6.972412e-16
       168  1.971144e-20
       169  6.744984e-26
       170  2.770319e-32
       171  1.357280e-39
       172  7.896215e-48
       173  5.436603e-57
       174  4.419079e-67
       175  4.233026e-78
       176  4.772111e-90
       177  6.325374e-103
       178  9.850613e-117
       179  1.801388e-131
       180  3.866727e-147
       181  9.739582e-164
       182  2.878054e-181
       183  9.975726e-200
       184  4.055278e-219
       185  1.933233e-239
       186  1.080694e-260
       187  7.083544e-283
       188  5.443888e-306
       189  0.000000e+00
       190  0.000000e+00
       191  0.000000e+00
       192  0.000000e+00
       193  0.000000e+00
       194  0.000000e+00
       195  0.000000e+00
       196  0.000000e+00
       197  0.000000e+00
       198  0.000000e+00
       199  0.000000e+00
       200  0.000000e+00
       201  0.000000e+00
       202  0.000000e+00
       203  0.000000e+00
       204  0.000000e+00
       205  0.000000e+00
       206  0.000000e+00
       207  0.000000e+00
       208  0.000000e+00
       209  0.000000e+00
       210  0.000000e+00
       211  0.000000e+00
       212  0.000000e+00
       213  0.000000e+00
       214  0.000000e+00
       215  0.000000e+00
       216  0.000000e+00
       217  0.000000e+00
       218  0.000000e+00
       219  0.000000e+00
       220  0.000000e+00
       221  0.000000e+00
       222  0.000000e+00
       223  0.000000e+00
       224  0.000000e+00
       225  0.000000e+00
       226  0.000000e+00
       227  0.000000e+00
       228  0.000000e+00
       229  0.000000e+00
       230  0.000000e+00
       231  0.000000e+00
       232  0.000000e+00
       233  0.000000e+00
       234  0.000000e+00
       235  0.000000e+00
       236  0.000000e+00
       237  0.000000e+00
       238  0.000000e+00
       239  0.000000e+00
       240  0.000000e+00
       241  0.000000e+00
       242  0.000000e+00
       243  0.000000e+00
       244  0.000000e+00
       245  0.000000e+00
       246  0.000000e+00
       247  0.000000e+00
       248  0.000000e+00
       249  0.000000e+00
       250  0.000000e+00
       251  0.000000e+00
       252  0.000000e+00
       253  0.000000e+00
       254  0.000000e+00
       255  0.000000e+00
       256  0.000000e+00
       257  0.000000e+00
       258  0.000000e+00
       259  0.000000e+00
       260  0.000000e+00
       261  0.000000e+00
       262  0.000000e+00
       263  0.000000e+00
       264  0.000000e+00
       265  0.000000e+00
       266  0.000000e+00
       267  0.000000e+00
       268  0.000000e+00
       269  0.000000e+00
       270  0.000000e+00
       271  0.000000e+00
       272  0.000000e+00
       273  0.000000e+00
       274  0.000000e+00
       275  0.000000e+00
       276  0.000000e+00
       277  0.000000e+00
       278  0.000000e+00
       279  0.000000e+00
       280  0.000000e+00
       281  0.000000e+00
       282  0.000000e+00
       283  0.000000e+00
       284  0.000000e+00
       285  0.000000e+00
       286  0.000000e+00
       287  0.000000e+00
       288  0.000000e+00
       289  0.000000e+00
       290  0.000000e+00
       291  0.000000e+00
       292  0.000000e+00
       293  0.000000e+00
       294  0.000000e+00
       295  0.000000e+00
       296  0.000000e+00
       297  0.000000e+00
       298  0.000000e+00
       299  0.000000e+00
       300  0.000000e+00
       301  0.000000e+00
       302  0.000000e+00
       303  0.000000e+00
       304  0.000000e+00
       305  0.000000e+00
       306  0.000000e+00
       307  0.000000e+00
       308  0.000000e+00
       309  0.000000e+00
       310  0.000000e+00
       311  0.000000e+00
       312  0.000000e+00
       313  0.000000e+00
       314  0.000000e+00
       315  0.000000e+00
       316  0.000000e+00
       317  0.000000e+00
       318  0.000000e+00
       319  0.000000e+00
       320  0.000000e+00
       321  0.000000e+00
       322  0.000000e+00
       323  0.000000e+00
       324  0.000000e+00
       325  0.000000e+00
       326  0.000000e+00
       327  0.000000e+00
       328  0.000000e+00
       329  0.000000e+00
       330  0.000000e+00
       331  0.000000e+00
       332  0.000000e+00
       333  0.000000e+00
       334  0.000000e+00
       335  0.000000e+00
       336  0.000000e+00
       337  0.000000e+00
       338  0.000000e+00
       339  0.000000e+00
       340  0.000000e+00
       341  0.000000e+00
       342  0.000000e+00
       343  0.000000e+00
       344  0.000000e+00
       345  0.000000e+00
       346  0.000000e+00
       347  0.000000e+00
       348  0.000000e+00
       349  0.000000e+00
       350  0.000000e+00
       351  0.000000e+00
       352  0.000000e+00
       353  0.000000e+00
       354  0.000000e+00
       355  0.000000e+00
       356  0.000000e+00
       357  0.000000e+00
       358  0.000000e+00
       359  0.000000e+00
       360  0.000000e+00
       361  0.000000e+00
       362  0.000000e+00
       363  0.000000e+00
       364  0.000000e+00
       365  0.000000e+00
       366  0.000000e+00
       367  0.000000e+00
       368  0.000000e+00
       369  0.000000e+00
       370  0.000000e+00
       371  0.000000e+00
       372  0.000000e+00
       373  0.000000e+00
       374  0.000000e+00
       375  0.000000e+00
       376  0.000000e+00
       377  0.000000e+00
       378  0.000000e+00
       379  0.000000e+00
       380  0.000000e+00
       381  0.000000e+00
       382  0.000000e+00
       383  0.000000e+00
       384  0.000000e+00
       385  0.000000e+00
       386  0.000000e+00
       387  0.000000e+00
       388  0.000000e+00
       389  0.000000e+00
       390  0.000000e+00
       391  0.000000e+00
       392  0.000000e+00
       393  0.000000e+00
       394  0.000000e+00
       395  0.000000e+00
       396  0.000000e+00
       397  0.000000e+00
       398  0.000000e+00
       399  0.000000e+00
       400  0.000000e+00
       401  0.000000e+00
       402  0.000000e+00
       403  0.000000e+00
       404  0.000000e+00
       405  0.000000e+00
       406  0.000000e+00
       407  0.000000e+00
       408  0.000000e+00
       409  0.000000e+00
       410  0.000000e+00
       411  0.000000e+00
       412  0.000000e+00
       413  0.000000e+00
       414  0.000000e+00
       415  0.000000e+00
       416  0.000000e+00
       417  0.000000e+00
       418  0.000000e+00
       419  0.000000e+00
       420  0.000000e+00
       421  0.000000e+00
       422  0.000000e+00
       423  0.000000e+00
       424  0.000000e+00
       425  0.000000e+00
       426  0.000000e+00
       427  0.000000e+00
       428  0.000000e+00
       429  0.000000e+00
       430  0.000000e+00
       431  0.000000e+00
       432  0.000000e+00
       433  0.000000e+00
       434  0.000000e+00
       435  0.000000e+00
       436  0.000000e+00
       437  0.000000e+00
       438  0.000000e+00
       439  0.000000e+00
       440  0.000000e+00
       441  0.000000e+00
       442  0.000000e+00
       443  0.000000e+00
       444  0.000000e+00
       445  0.000000e+00
       446  0.000000e+00
       447  0.000000e+00
       448  0.000000e+00
       449  0.000000e+00
       450  0.000000e+00
       451  0.000000e+00
       452  0.000000e+00
       453  0.000000e+00
       454  0.000000e+00
       455  0.000000e+00
       456  0.000000e+00
       457  0.000000e+00
       458  0.000000e+00
       459  0.000000e+00
       460  0.000000e+00
       461  0.000000e+00
       462  0.000000e+00
       463  0.000000e+00
       464  0.000000e+00
       465  0.000000e+00
       466  0.000000e+00
       467  0.000000e+00
       468  0.000000e+00
       469  0.000000e+00
       470  0.000000e+00
       471  0.000000e+00
       472  0.000000e+00
       473  0.000000e+00
       474  0.000000e+00
       475  0.000000e+00
       476  0.000000e+00
       477  0.000000e+00
       478  0.000000e+00
       479  0.000000e+00
       480  0.000000e+00
       481  0.000000e+00
       482  0.000000e+00
       483  0.000000e+00
       484  0.000000e+00
       485  0.000000e+00
       486  0.000000e+00
       487  0.000000e+00
       488  0.000000e+00
       489  0.000000e+00
       490  0.000000e+00
       491  0.000000e+00
       492  0.000000e+00
       493  0.000000e+00
       494  0.000000e+00
       495  0.000000e+00
       496  0.000000e+00
       497  0.000000e+00
       498  0.000000e+00
       499  0.000000e+00
       500  0.000000e+00
       501  0.000000e+00
       502  0.000000e+00
       503  0.000000e+00
       504  0.000000e+00
       505  0.000000e+00
       506  0.000000e+00
       507  0.000000e+00
       508  0.000000e+00
       509  0.000000e+00
       510  0.000000e+00
       511  0.000000e+00
       512  0.000000e+00
       513  0.000000e+00
       514  0.000000e+00
       515  0.000000e+00
       516  0.000000e+00
       517  0.000000e+00
       518  0.000000e+00
       519  0.000000e+00
       520  0.000000e+00
       521  0.000000e+00
       522  0.000000e+00
       523  0.000000e+00
       524  0.000000e+00
       525  0.000000e+00
       526  0.000000e+00
       527  0.000000e+00
       528  0.000000e+00
       529  0.000000e+00
       530  0.000000e+00
       531  0.000000e+00
       532  0.000000e+00
       533  0.000000e+00
       534  0.000000e+00
       535  0.000000e+00
       536  0.000000e+00
       537  0.000000e+00
       538  0.000000e+00
       539  0.000000e+00
       540  0.000000e+00
       541  0.000000e+00
       542  0.000000e+00
       543  0.000000e+00
       544  0.000000e+00
       545  0.000000e+00
       546  0.000000e+00
       547  0.000000e+00
       548  0.000000e+00
       549  0.000000e+00
       550  0.000000e+00
       551  0.000000e+00
       552  0.000000e+00
       553  0.000000e+00
       554  0.000000e+00
       555  0.000000e+00
       556  0.000000e+00
       557  0.000000e+00
       558  0.000000e+00
       559  0.000000e+00
       560  0.000000e+00
       561  0.000000e+00
       562  0.000000e+00
       563  0.000000e+00
       564  0.000000e+00
       565  0.000000e+00
       566  0.000000e+00
       567  0.000000e+00
       568  0.000000e+00
       569  0.000000e+00
       570  0.000000e+00
       571  0.000000e+00
       572  0.000000e+00
       573  0.000000e+00
       574  0.000000e+00
       575  0.000000e+00
       576  0.000000e+00
       577  0.000000e+00
       578  0.000000e+00
       579  0.000000e+00
       580  0.000000e+00
       581  0.000000e+00
       582  0.000000e+00
       583  0.000000e+00
       584  0.000000e+00
       585  0.000000e+00
       586  0.000000e+00
       587  0.000000e+00
       588  0.000000e+00
       589  0.000000e+00
       590  0.000000e+00
       591  0.000000e+00
       592  0.000000e+00
       593  0.000000e+00
       594  0.000000e+00
       595  0.000000e+00
       596  0.000000e+00
       597  0.000000e+00
       598  0.000000e+00
       599  0.000000e+00
